{
  "current": {
    "color_body_bg": "#ffffff",
    "color_body_bg_alt": "#f9f9f9",
    "color_primary": "#33856b",
    "color_secondary": "#141414",
    "color_borders": "#e9e9e9",
    "color_text_titles": "#ffffff",
    "color_text_general": "#ffffff",
    "color_text_alternate": "#ffffff",
    "color_text_buttons": "#ffffff",
    "color_drawer_background": "#000000",
    "color_drawer_text": "#ffffff",
    "color_footer_bg": "#000000",
    "color_footer_text": "#757575",
    "typography_headings": "Montserrat,sans-serif",
    "typography_body": "Roboto,sans-serif",
    "favicon": "",
    "share_image": "",
    "social_twitter": "",
    "social_facebook": "",
    "social_google": "",
    "social_youtube": "",
    "social_vimeo": "",
    "social_pinterest": "",
    "social_snapchat": "",
    "social_tumblr": "",
    "social_instagram": "",
    "social_linkedin": "",
    "social_flickr": "",
    "social_email": "",
    "checkout_header_image": "",
    "checkout_logo_image": "",
    "checkout_logo_position": "left",
    "checkout_logo_size": "medium",
    "checkout_body_background_image": "",
    "checkout_body_background_color": "#fff",
    "checkout_input_background_color_mode": "white",
    "checkout_sidebar_background_image": "",
    "checkout_sidebar_background_color": "#fafafa",
    "checkout_heading_font": "-apple-system, BlinkMacSystemFont, 'Segoe UI', Roboto, Helvetica, Arial, sans-serif, 'Apple Color Emoji', 'Segoe UI Emoji', 'Segoe UI Symbol'",
    "checkout_body_font": "-apple-system, BlinkMacSystemFont, 'Segoe UI', Roboto, Helvetica, Arial, sans-serif, 'Apple Color Emoji', 'Segoe UI Emoji', 'Segoe UI Symbol'",
    "checkout_accent_color": "#197bbd",
    "checkout_button_color": "#197bbd",
    "checkout_error_color": "#e32c2b",
    "sections": {
      "header": {
        "type": "header",
        "settings": {
          "logo": "shopify:\/\/shop_images\/header-logo.png",
          "logo_use_inverted": false,
          "logo-inverted": "",
          "logo_max_width": "250",
          "main_linklist": "main-menu",
          "menu_style": "classic",
          "menu_text_color": "is-dark",
          "menu_product": "",
          "show_announcement": false,
          "home_page_only": true,
          "announcement_text": "Announce something here",
          "announcement_link": "",
          "announcement_color_bg": "#429c80",
          "announcement_color_text": "#fff"
        }
      },
      "footer": {
        "type": "footer",
        "settings": {
          "footer_logo": "",
          "footer_logo_max_width": "50",
          "footer_newsletter_enable": false,
          "footer_linklist": "footer",
          "footer_payment_enable": false
        }
      },
      "1523592024329": {
        "type": "bitch_big-section",
        "settings": {}
      },
      "1524813686028": {
        "type": "bitch_attitude-section",
        "settings": {}
      },
      "1526895867767": {
        "type": "bitch_contact-section",
        "settings": {}
      }
    },
    "content_for_index": [
      "1523592024329",
      "1524813686028",
      "1526895867767"
    ]
  },
  "presets": {
    "Jumpstart": {
      "color_body_bg": "#ffffff",
      "color_body_bg_alt": "#f9f9f9",
      "color_primary": "#33856B",
      "color_secondary": "#141414",
      "color_borders": "#e9e9e9",
      "color_text_titles": "#111111",
      "color_text_general": "#343434",
      "color_text_alternate": "#7a7a7a",
      "color_text_buttons": "#ffffff",
      "color_drawer_background": "#000000",
      "color_drawer_text": "#ffffff",
      "color_footer_bg": "#000000",
      "color_footer_text": "#757575",
      "typography_headings": "Montserrat,sans-serif",
      "typography_body": "Raleway,sans-serif",
      "sections": {
        "header": {
          "type": "header",
          "settings": {}
        },
        "video": {
          "type": "video",
          "settings": {}
        },
        "feature-rows": {
          "type": "feature-rows",
          "blocks": {
            "feature-rows-0": {
              "type": "text",
              "settings": {}
            }
          },
          "block_order": [
            "feature-rows-0"
          ],
          "settings": {}
        },
        "feature-columns": {
          "type": "feature-columns",
          "blocks": {
            "feature-columns-0": {
              "type": "text",
              "settings": {}
            },
            "feature-columns-1": {
              "type": "text",
              "settings": {}
            },
            "feature-columns-2": {
              "type": "text",
              "settings": {}
            }
          },
          "block_order": [
            "feature-columns-0",
            "feature-columns-1",
            "feature-columns-2"
          ],
          "settings": {}
        },
        "kickstarter": {
          "type": "kickstarter",
          "settings": {}
        },
        "slideshow": {
          "type": "slideshow",
          "blocks": {
            "slideshow-0": {
              "type": "image",
              "settings": {}
            },
            "slideshow-1": {
              "type": "image",
              "settings": {}
            },
            "slideshow-2": {
              "type": "image",
              "settings": {}
            }
          },
          "block_order": [
            "slideshow-0",
            "slideshow-1",
            "slideshow-2"
          ],
          "settings": {}
        },
        "faq": {
          "type": "faq",
          "blocks": {
            "faq-0": {
              "type": "text",
              "settings": {}
            },
            "faq-1": {
              "type": "text",
              "settings": {}
            },
            "faq-2": {
              "type": "text",
              "settings": {}
            }
          },
          "block_order": [
            "faq-0",
            "faq-1",
            "faq-2"
          ],
          "settings": {}
        },
        "home-product": {
          "type": "home-product",
          "settings": {}
        },
        "featured-blog": {
          "type": "featured-blog",
          "settings": {
            "blog": "news"
          }
        },
        "featured-content": {
          "type": "featured-content",
          "blocks": {
            "featured-content-0": {
              "type": "text",
              "settings": {}
            }
          },
          "block_order": [
            "featured-content-0"
          ],
          "settings": {}
        },
        "footer": {
          "type": "footer",
          "settings": {}
        }
      },
      "content_for_index": [
        "video",
        "feature-rows",
        "feature-columns",
        "featured-content",
        "kickstarter",
        "faq",
        "slideshow",
        "home-product",
        "featured-blog"
      ]
    }
  }
}